{
  "shell_port": 50239,
  "iopub_port": 38111,
  "stdin_port": 50985,
  "control_port": 54105,
  "hb_port": 56711,
  "ip": "127.0.0.1",
  "key": "1e15f964-8a8df339a8e7e3ef440f084d",
  "transport": "tcp",
  "signature_scheme": "hmac-sha256",
  "kernel_name": ""
}